<?xml version="1.0" encoding="UTF-8" standalone="no"?>
<svg
   xmlns:dc="http://purl.org/dc/elements/1.1/"
   xmlns:cc="http://creativecommons.org/ns#"
   xmlns:rdf="http://www.w3.org/1999/02/22-rdf-syntax-ns#"
   xmlns:svg="http://www.w3.org/2000/svg"
   xmlns="http://www.w3.org/2000/svg"
   xmlns:sodipodi="http://sodipodi.sourceforge.net/DTD/sodipodi-0.dtd"
   xmlns:inkscape="http://www.inkscape.org/namespaces/inkscape"
   version="1.1"
   id="svg3699"
   viewBox="0 0 60.242817 60.242823"
   height="17.001863mm"
   width="17.001862mm"
   sodipodi:docname="icon-map-bg.svg"
   inkscape:version="0.92.4 (5da689c313, 2019-01-14)">
  <sodipodi:namedview
     pagecolor="#ffffff"
     bordercolor="#666666"
     borderopacity="1"
     objecttolerance="10"
     gridtolerance="10"
     guidetolerance="10"
     inkscape:pageopacity="0"
     inkscape:pageshadow="2"
     inkscape:window-width="1920"
     inkscape:window-height="1016"
     id="namedview6"
     showgrid="false"
     inkscape:zoom="7.3452733"
     inkscape:cx="-16.804951"
     inkscape:cy="28.235374"
     inkscape:window-x="0"
     inkscape:window-y="27"
     inkscape:window-maximized="1"
     inkscape:current-layer="svg3699" />
  <defs
     id="defs3701" />
  <metadata
     id="metadata3704">
    <rdf:RDF>
      <cc:Work
         rdf:about="">
        <dc:format>image/svg+xml</dc:format>
        <dc:type
           rdf:resource="http://purl.org/dc/dcmitype/StillImage" />
        <dc:title />
      </cc:Work>
    </rdf:RDF>
  </metadata>
  <ellipse
     ry="23.42214"
     rx="23.422138"
     cy="30.121412"
     cx="30.121408"
     id="ellipse6716"
     style="color:#000000;clip-rule:nonzero;display:inline;overflow:visible;visibility:visible;opacity:1;isolation:auto;mix-blend-mode:normal;color-interpolation:sRGB;color-interpolation-filters:linearRGB;solid-color:#000000;solid-opacity:1;fill:#fa8072;fill-opacity:1;fill-rule:nonzero;stroke:none;stroke-width:0.30000001;stroke-linecap:round;stroke-linejoin:round;stroke-miterlimit:4;stroke-dasharray:none;stroke-dashoffset:0;stroke-opacity:1;marker:none;color-rendering:auto;image-rendering:auto;shape-rendering:auto;text-rendering:auto;enable-background:accumulate" />
  <style
     id="style2"
     type="text/css">
	.st0{opacity:0.5;fill:#E3E3E3;enable-background:new    ;}
	.st1{fill:none;stroke:#B9B8B9;stroke-linecap:round;stroke-linejoin:round;}
	.st2{opacity:0.2;fill:#FFFFFF;enable-background:new    ;}
	.st3{opacity:0.1;fill:#FFFFFF;enable-background:new    ;}
	.st4{opacity:0.3;fill:#010101;enable-background:new    ;}
	.st5{fill:#333333;}
	.st6{opacity:0.1;fill:#010101;enable-background:new    ;}
	.st7{fill:#B8B6B7;}
	.st8{opacity:0.2;fill:#010101;enable-background:new    ;}
	.st9{opacity:0.4;}
	.st10{fill:#FFFFFF;}
	.st11{opacity:5.000000e-02;fill:#FFFFFF;enable-background:new    ;}
	.st12{fill:#F9CFBA;}
	.st13{fill:#E3E3E3;}
	.st14{fill:#B9B8B9;}
	.st15{fill:#0C5AA6;}
	.st16{fill:#FBD1BF;}
	.st17{fill:#E73728;}
	.st18{fill:#3A1312;}
	.st19{opacity:0.3;fill:#3A1312;enable-background:new    ;}
	.st20{fill:#FBD1BC;}
	.st21{fill:#868686;}
	.st22{fill:#878888;}
	.st23{fill:none;stroke:#E3E3E3;stroke-linecap:round;stroke-linejoin:round;}
	.st24{opacity:0.1;fill:none;stroke:#010101;stroke-linecap:round;stroke-linejoin:round;enable-background:new    ;}
</style>
</svg>
