<?xml version="1.0" encoding="UTF-8" standalone="no"?>
<svg
   xmlns:dc="http://purl.org/dc/elements/1.1/"
   xmlns:cc="http://creativecommons.org/ns#"
   xmlns:rdf="http://www.w3.org/1999/02/22-rdf-syntax-ns#"
   xmlns:svg="http://www.w3.org/2000/svg"
   xmlns="http://www.w3.org/2000/svg"
   xmlns:sodipodi="http://sodipodi.sourceforge.net/DTD/sodipodi-0.dtd"
   xmlns:inkscape="http://www.inkscape.org/namespaces/inkscape"
   version="1.1"
   id="svg3699"
   viewBox="0 0 60.242817 60.242823"
   height="17.001863mm"
   width="17.001862mm"
   sodipodi:docname="icon-map-marker.svg"
   inkscape:version="0.92.4 (5da689c313, 2019-01-14)">
  <sodipodi:namedview
     pagecolor="#ffffff"
     bordercolor="#666666"
     borderopacity="1"
     objecttolerance="10"
     gridtolerance="10"
     guidetolerance="10"
     inkscape:pageopacity="0"
     inkscape:pageshadow="2"
     inkscape:window-width="745"
     inkscape:window-height="501"
     id="namedview6"
     showgrid="false"
     inkscape:zoom="7.3452733"
     inkscape:cx="65.490246"
     inkscape:cy="28.387954"
     inkscape:window-x="1094"
     inkscape:window-y="401"
     inkscape:window-maximized="0"
     inkscape:current-layer="svg3699"
     inkscape:snap-global="false" />
  <defs
     id="defs3701" />
  <metadata
     id="metadata3704">
    <rdf:RDF>
      <cc:Work
         rdf:about="">
        <dc:format>image/svg+xml</dc:format>
        <dc:type
           rdf:resource="http://purl.org/dc/dcmitype/StillImage" />
        <dc:title></dc:title>
      </cc:Work>
    </rdf:RDF>
  </metadata>
  <style
     id="style2"
     type="text/css">
	.st0{opacity:0.5;fill:#E3E3E3;enable-background:new    ;}
	.st1{fill:none;stroke:#B9B8B9;stroke-linecap:round;stroke-linejoin:round;}
	.st2{opacity:0.2;fill:#FFFFFF;enable-background:new    ;}
	.st3{opacity:0.1;fill:#FFFFFF;enable-background:new    ;}
	.st4{opacity:0.3;fill:#010101;enable-background:new    ;}
	.st5{fill:#333333;}
	.st6{opacity:0.1;fill:#010101;enable-background:new    ;}
	.st7{fill:#B8B6B7;}
	.st8{opacity:0.2;fill:#010101;enable-background:new    ;}
	.st9{opacity:0.4;}
	.st10{fill:#FFFFFF;}
	.st11{opacity:5.000000e-02;fill:#FFFFFF;enable-background:new    ;}
	.st12{fill:#F9CFBA;}
	.st13{fill:#E3E3E3;}
	.st14{fill:#B9B8B9;}
	.st15{fill:#0C5AA6;}
	.st16{fill:#FBD1BF;}
	.st17{fill:#E73728;}
	.st18{fill:#3A1312;}
	.st19{opacity:0.3;fill:#3A1312;enable-background:new    ;}
	.st20{fill:#FBD1BC;}
	.st21{fill:#868686;}
	.st22{fill:#878888;}
	.st23{fill:none;stroke:#E3E3E3;stroke-linecap:round;stroke-linejoin:round;}
	.st24{opacity:0.1;fill:none;stroke:#010101;stroke-linecap:round;stroke-linejoin:round;enable-background:new    ;}
</style>
  <rect
     style="opacity:1;fill:#ffffff;fill-opacity:1;stroke:none;stroke-width:0.38732791;stroke-linecap:round;stroke-linejoin:round;stroke-miterlimit:4;stroke-dasharray:none;stroke-dashoffset:0;stroke-opacity:0.45041324;paint-order:fill markers stroke"
     id="rect824"
     width="24.220055"
     height="6.112381"
     x="17.996267"
     y="15.188339"
     ry="0" />
  <rect
     style="opacity:1;fill:#ffffff;fill-opacity:1;stroke:none;stroke-width:0.07921385;stroke-linecap:round;stroke-linejoin:round;stroke-miterlimit:4;stroke-dasharray:none;stroke-dashoffset:0;stroke-opacity:0.45041324;paint-order:fill markers stroke"
     id="rect828"
     width="2.5751827"
     height="2.4044857"
     x="15.369381"
     y="42.417095"
     ry="0" />
  <rect
     style="opacity:1;fill:#ffffff;fill-opacity:1;stroke:none;stroke-width:0.38005775;stroke-linecap:round;stroke-linejoin:round;stroke-miterlimit:4;stroke-dasharray:none;stroke-dashoffset:0;stroke-opacity:0.45041324;paint-order:fill markers stroke"
     id="rect832"
     width="24.26124"
     height="18.028175"
     x="17.969835"
     y="26.691742" />
  <rect
     ry="0"
     y="42.417095"
     x="42.489574"
     height="2.4044857"
     width="2.5751827"
     id="rect830"
     style="opacity:1;fill:#ffffff;fill-opacity:1;stroke:none;stroke-width:0.07921385;stroke-linecap:round;stroke-linejoin:round;stroke-miterlimit:4;stroke-dasharray:none;stroke-dashoffset:0;stroke-opacity:0.45041324;paint-order:fill markers stroke" />
  <rect
     ry="0"
     y="37.137455"
     x="31.975422"
     height="4.6156163"
     width="7.0425692"
     id="rect826"
     style="opacity:1;fill:#fa8072;fill-opacity:1;stroke:none;stroke-width:0.18149574;stroke-linecap:round;stroke-linejoin:round;stroke-miterlimit:4;stroke-dasharray:none;stroke-dashoffset:0;stroke-opacity:0.45041324;paint-order:fill markers stroke" />
  <path
     style="opacity:1;fill:#ac9393;fill-opacity:1;stroke:none;stroke-width:0.39999998;stroke-linecap:round;stroke-linejoin:round;stroke-miterlimit:4;stroke-dasharray:none;stroke-dashoffset:0;stroke-opacity:0.45041324;paint-order:fill markers stroke"
     d="M 18.458984 28.013672 A 2.1900723 2.0697386 0 0 0 17.541016 28.207031 L 16.365234 28.207031 L 16.365234 29.486328 A 2.1900723 2.0697386 0 0 0 16.269531 30.083984 A 2.1900723 2.0697386 0 0 0 18.458984 32.154297 A 2.1900723 2.0697386 0 0 0 20.648438 30.083984 A 2.1900723 2.0697386 0 0 0 20.574219 29.554688 L 20.820312 29.554688 A 2.1900723 2.0697386 0 0 0 20.746094 30.083984 A 2.1900723 2.0697386 0 0 0 22.935547 32.154297 A 2.1900723 2.0697386 0 0 0 25.125 30.083984 A 2.1900723 2.0697386 0 0 0 25.050781 29.554688 L 25.34375 29.554688 A 2.1900723 2.0697386 0 0 0 25.269531 30.083984 A 2.1900723 2.0697386 0 0 0 27.460938 32.154297 A 2.1900723 2.0697386 0 0 0 29.650391 30.083984 A 2.1900723 2.0697386 0 0 0 29.576172 29.554688 L 30.060547 29.554688 A 2.1900723 2.0697386 0 0 0 29.986328 30.083984 A 2.1900723 2.0697386 0 0 0 32.177734 32.154297 A 2.1900723 2.0697386 0 0 0 34.367188 30.083984 A 2.1900723 2.0697386 0 0 0 34.292969 29.554688 L 34.537109 29.554688 A 2.1900723 2.0697386 0 0 0 34.462891 30.083984 A 2.1900723 2.0697386 0 0 0 36.654297 32.154297 A 2.1900723 2.0697386 0 0 0 38.84375 30.083984 A 2.1900723 2.0697386 0 0 0 38.769531 29.554688 L 39.013672 29.554688 A 2.1900723 2.0697386 0 0 0 38.939453 30.083984 A 2.1900723 2.0697386 0 0 0 41.130859 32.154297 A 2.1900723 2.0697386 0 0 0 43.320312 30.083984 A 2.1900723 2.0697386 0 0 0 43.246094 29.554688 L 43.634766 29.554688 A 2.1900723 2.0697386 0 0 0 43.560547 30.083984 A 2.1900723 2.0697386 0 0 0 45.75 32.154297 A 2.1900723 2.0697386 0 0 0 47.941406 30.083984 A 2.1900723 2.0697386 0 0 0 47.867188 29.554688 L 48.037109 29.554688 L 48.037109 28.207031 L 46.671875 28.207031 A 2.1900723 2.0697386 0 0 0 45.75 28.013672 A 2.1900723 2.0697386 0 0 0 44.832031 28.207031 L 42.050781 28.207031 A 2.1900723 2.0697386 0 0 0 41.130859 28.013672 A 2.1900723 2.0697386 0 0 0 40.208984 28.207031 L 37.574219 28.207031 A 2.1900723 2.0697386 0 0 0 36.654297 28.013672 A 2.1900723 2.0697386 0 0 0 35.732422 28.207031 L 33.097656 28.207031 A 2.1900723 2.0697386 0 0 0 32.177734 28.013672 A 2.1900723 2.0697386 0 0 0 31.255859 28.207031 L 28.380859 28.207031 A 2.1900723 2.0697386 0 0 0 27.460938 28.013672 A 2.1900723 2.0697386 0 0 0 26.539062 28.207031 L 23.855469 28.207031 A 2.1900723 2.0697386 0 0 0 22.935547 28.013672 A 2.1900723 2.0697386 0 0 0 22.017578 28.207031 L 19.378906 28.207031 A 2.1900723 2.0697386 0 0 0 18.458984 28.013672 z "
     transform="scale(0.93750002)"
     id="path834" />
  <path
     style="opacity:1;fill:#ac9393;fill-opacity:1;stroke:none;stroke-width:0.39999998;stroke-linecap:round;stroke-linejoin:round;stroke-miterlimit:4;stroke-dasharray:none;stroke-dashoffset:0;stroke-opacity:0.45041324;paint-order:fill markers stroke"
     d="M 26.304688 35.523438 A 4.4042108 3.82661 0 0 0 21.935547 38.892578 L 21.900391 38.892578 L 21.900391 39.349609 L 21.900391 47.652344 L 30.757812 47.652344 L 30.757812 38.892578 L 30.671875 38.892578 A 4.4042108 3.82661 0 0 0 26.304688 35.523438 z "
     transform="scale(0.93750002)"
     id="rect852" />
  <path
     sodipodi:nodetypes="ccsssccscsccscscsssccsccsscsssssssscccscsscsscscsscsccsssscssscsscssscscssccscscscsscccccscsccccscssscscsssssscscssscsscssscsscccccsssccsccccsccccscscscscsccscsscsccccssccssscssssscsccssscsscscccsccscscsscscsscscscscccscscscccsccccsccscccscsscscscccsccsc"
     style="fill:#333333;fill-opacity:1;stroke-width:0.06204907"
     d="m 16.500558,45.34628 c -1.213982,-0.01529 -1.440077,-0.03287 -1.535715,-0.119426 -0.102067,-0.09237 -0.112151,-0.231738 -0.112151,-1.550033 0,-1.365803 0.0071,-1.455623 0.124097,-1.572633 0.115742,-0.115743 0.206831,-0.1241 1.35267,-0.1241 0.872825,0 1.250134,-0.02156 1.303032,-0.07446 0.05682,-0.05682 0.07423,-1.390896 0.07351,-5.630951 -5.62e-4,-3.056071 -0.02146,-5.586715 -0.04654,-5.623653 -0.02508,-0.03694 -0.259592,-0.09662 -0.521155,-0.132629 -0.823664,-0.113393 -1.439186,-0.488447 -1.841429,-1.12203 -0.316904,-0.499163 -0.382164,-0.845121 -0.381905,-2.02458 1.4e-4,-0.949979 0.01302,-1.080075 0.124453,-1.262828 0.06832,-0.112058 0.675521,-1.201019 1.349335,-2.419913 l 1.225114,-2.216171 0.03102,-3.201575 c 0.02508,-2.587739 0.04735,-3.221235 0.116183,-3.304113 0.07866,-0.09471 1.006233,-0.102537 12.146104,-0.102537 11.978212,0 12.061796,8.05e-4 12.185043,0.124098 0.12056,0.120561 0.124098,0.20683 0.124098,3.026588 v 2.902487 l 0.172987,0.153428 c 0.09514,0.08438 0.700247,1.11674 1.344673,2.29412 0.644427,1.177381 1.280689,2.321504 1.413914,2.542495 l 0.242229,0.401803 -0.02017,1.149425 c -0.02008,1.144701 -0.02097,1.151137 -0.217787,1.566599 -0.396561,0.83712 -1.09449,1.353584 -2.010629,1.487861 -0.252921,0.03707 -0.480368,0.09828 -0.505443,0.136016 -0.02507,0.03773 -0.04602,2.569038 -0.04654,5.625109 -8.05e-4,4.240055 0.01669,5.574135 0.07351,5.630951 0.05277,0.05277 0.423312,0.07446 1.272004,0.07446 1.114816,0 1.206121,0.0086 1.321645,0.1241 0.116906,0.116904 0.124099,0.20683 0.124099,1.551226 0,1.301627 -0.01001,1.437142 -0.113862,1.540989 -0.103941,0.103939 -0.289127,0.117449 -2.125181,0.155019 -1.880938,0.03849 -23.508906,0.03431 -26.641229,-0.0052 z m 3.483031,-0.775643 c 0.02761,-0.04266 0.06422,-1.906457 0.08135,-4.141773 l 0.03115,-4.064215 0.168922,-0.496393 c 0.249641,-0.733591 0.570696,-1.238358 1.164251,-1.830445 0.891537,-0.88934 1.893242,-1.309769 3.134109,-1.315438 0.712181,-0.0033 1.266077,0.110225 1.866207,0.382339 1.168391,0.529772 2.047862,1.506191 2.489155,2.763544 l 0.17422,0.496393 0.01807,4.060935 c 0.01243,2.794332 0.03899,4.08615 0.08516,4.141776 0.09444,0.113789 12.397662,0.120064 12.511347,0.0064 0.05704,-0.05704 0.07446,-1.724728 0.07446,-7.128372 v -7.053905 l -0.408195,-0.299685 c -0.224507,-0.164828 -0.434905,-0.349596 -0.467551,-0.410593 -0.09405,-0.175731 -0.236855,-0.131891 -0.56244,0.172657 -0.355969,0.332968 -0.828169,0.564099 -1.35114,0.661357 -0.715219,0.133009 -1.545749,-0.136813 -2.134219,-0.693365 -0.182376,-0.172481 -0.351404,-0.313602 -0.37562,-0.313602 -0.02421,0 -0.180456,0.134288 -0.347194,0.298416 -0.992848,0.97731 -2.534969,0.979015 -3.557288,0.0039 -0.174346,-0.166294 -0.324355,-0.302348 -0.33336,-0.302348 -0.009,0 -0.149486,0.12829 -0.31219,0.285089 -1.032141,0.994679 -2.550796,1.000015 -3.601394,0.01266 l -0.327217,-0.307524 -0.339824,0.310582 c -1.068283,0.97635 -2.522578,0.983183 -3.578112,0.01681 L 23.733213,29.502625 23.3792,29.823221 c -0.639171,0.578837 -1.420131,0.824494 -2.177485,0.684946 -0.550074,-0.101355 -1.00737,-0.324942 -1.354385,-0.662201 -0.32038,-0.311373 -0.396359,-0.330777 -0.564017,-0.144034 -0.06501,0.07241 -0.278755,0.255541 -0.474986,0.406948 l -0.356782,0.275284 v 7.057559 c 0,5.406479 0.01742,7.074976 0.07446,7.132015 0.105329,0.10533 1.389182,0.102597 1.457592,-0.0031 z m 11.622351,-2.34235 c -0.120112,-0.120111 -0.124101,-0.206832 -0.124101,-2.699136 0,-2.492303 0.0039,-2.579023 0.124101,-2.699133 0.121339,-0.121341 0.206828,-0.124099 3.847041,-0.124099 3.64021,0 3.725699,0.0027 3.84704,0.124099 0.120154,0.120151 0.124098,0.20683 0.124098,2.72664 v 2.602541 l -0.137903,0.09659 c -0.121081,0.08481 -0.590407,0.09659 -3.847043,0.09659 -3.626405,0 -3.711905,-0.0027 -3.833233,-0.124097 z m 6.980518,-2.699136 V 37.543583 H 35.484003 32.38155 l -0.01643,1.922913 c -0.009,1.057606 -0.0028,1.958352 0.01379,2.001662 0.02397,0.06247 0.668602,0.07542 3.118886,0.06266 l 3.088665,-0.01609 z m -10.408731,5.016236 0.139612,-0.03474 v -3.90892 c 0,-3.366249 -0.01366,-3.961848 -0.09836,-4.290171 -0.357074,-1.384057 -1.567226,-2.489562 -3.004094,-2.744318 -1.872884,-0.33206 -3.767565,0.893468 -4.245544,2.746125 -0.08618,0.33405 -0.09678,0.881778 -0.08285,4.281385 l 0.01598,3.898329 0.372294,0.03503 c 0.492544,0.04635 6.723473,0.06194 6.902957,0.01728 z M 26.97441,40.181189 c -0.192233,-0.07758 -0.332397,-0.307207 -0.332397,-0.544566 0,-0.616687 0.940017,-0.710645 1.091007,-0.109049 0.06241,0.24866 -0.02337,0.460958 -0.239498,0.592735 -0.216725,0.132144 -0.314195,0.143574 -0.519112,0.06088 z m -9.342995,3.576098 c 0.01167,-0.48943 -0.0064,-0.764703 -0.05414,-0.82215 -0.0544,-0.06555 -0.263013,-0.08636 -0.86564,-0.08636 -0.436681,0 -0.838132,0.01695 -0.892113,0.03766 -0.08209,0.03151 -0.09815,0.161762 -0.09815,0.796296 0,0.417247 0.01933,0.777963 0.04296,0.80159 0.02363,0.02363 0.449438,0.03526 0.946248,0.02585 l 0.903292,-0.0171 z m 26.92926,-0.03493 c 0.01306,-0.574898 -0.0027,-0.783546 -0.06205,-0.821203 -0.130962,-0.0831 -1.687696,-0.06372 -1.773495,0.02208 -0.08076,0.08076 -0.109071,1.483521 -0.03151,1.56109 0.02363,0.02363 0.449439,0.03526 0.946249,0.02585 l 0.903292,-0.0171 z M 22.348437,29.566574 c 0.401287,-0.200526 0.690236,-0.50442 0.855349,-0.899589 0.111402,-0.266626 0.187066,-1.204526 0.124204,-1.539607 l -0.04262,-0.227194 -1.687841,0.01651 -1.687838,0.0165 v 0.80664 c 0,0.76773 0.0082,0.820601 0.170196,1.096159 0.496532,0.844653 1.435278,1.146974 2.26855,0.730583 z m 8.339502,0.09341 c 0.378886,-0.129097 0.7275,-0.43878 0.949047,-0.843055 0.160676,-0.293201 0.185108,-0.407566 0.20668,-0.967431 0.01346,-0.349209 0.0067,-0.705662 -0.01499,-0.792121 l -0.03946,-0.157196 -1.689405,0.01651 -1.689404,0.0165 v 0.775614 c 0,0.743892 0.0076,0.789213 0.184169,1.108122 0.434975,0.785319 1.272682,1.122687 2.093357,0.843055 z m 8.500723,0 c 0.352828,-0.12022 0.746308,-0.451767 0.951309,-0.801572 0.1492,-0.254594 0.15572,-0.305943 0.139172,-1.096162 l -0.01736,-0.829056 -1.63999,-0.01656 c -1.27066,-0.01284 -1.651224,0.0011 -1.689886,0.06205 -0.0857,0.135016 -0.05739,1.18518 0.04087,1.516055 0.281184,0.946845 1.293909,1.4794 2.215884,1.165251 z m -21.188326,-0.0606 c 0.342928,-0.143285 0.63027,-0.385927 0.830022,-0.700905 0.174763,-0.275571 0.179621,-0.305395 0.179621,-1.102654 v -0.819423 l -0.356782,-0.03744 c -0.544499,-0.05713 -2.699407,-0.02682 -2.829749,0.0398 -0.10408,0.0532 -0.112745,0.125132 -0.09048,0.751214 0.02785,0.782979 0.135308,1.101964 0.49251,1.461889 0.451717,0.455163 1.232019,0.63432 1.774861,0.407506 z m 8.490611,-0.02231 c 0.37571,-0.170645 0.711165,-0.494643 0.873857,-0.84401 0.125377,-0.269235 0.144765,-0.407329 0.14529,-1.034842 l 6.6e-4,-0.724147 -0.170634,-0.03469 c -0.291089,-0.05919 -2.955807,-0.02574 -3.078998,0.03864 -0.105714,0.05525 -0.113575,0.122905 -0.08746,0.752531 0.0326,0.786148 0.108025,1.016409 0.4613,1.408266 0.467436,0.51849 1.264849,0.706779 1.856044,0.438258 z m 8.558714,-0.0287 c 0.348761,-0.162752 0.739836,-0.561322 0.883251,-0.90018 0.140947,-0.333031 0.176467,-1.515115 0.04935,-1.642237 -0.08047,-0.08047 -0.325804,-0.09535 -1.568825,-0.09518 -0.810391,8.9e-5 -1.522303,0.01406 -1.582025,0.031 -0.0955,0.02709 -0.108587,0.118579 -0.108587,0.759026 0,0.657483 0.01548,0.759277 0.159297,1.047889 0.410456,0.82368 1.363038,1.175123 2.167543,0.799689 z m 8.469696,0.01714 c 0.341504,-0.154265 0.710545,-0.500821 0.886944,-0.832904 0.106925,-0.201294 0.136449,-0.384921 0.156235,-0.971681 0.0221,-0.655328 0.01357,-0.729221 -0.09056,-0.784386 -0.1382,-0.07322 -3.064667,-0.08756 -3.181117,-0.01559 -0.061,0.0377 -0.07515,0.23696 -0.0584,0.822578 0.02095,0.732199 0.03189,0.788556 0.208254,1.07208 0.462209,0.743063 1.340902,1.043153 2.078643,0.709899 z m -20.122485,-3.51923 c 0.100446,-0.06385 1.033503,-4.110733 0.96384,-4.180397 -0.02988,-0.02988 -0.638715,-0.04677 -1.352963,-0.03753 l -1.298636,0.0168 -0.787339,2.045824 c -0.579682,1.506246 -0.769968,2.066753 -0.721479,2.125179 0.05026,0.06056 0.427799,0.07913 1.593977,0.07841 0.840463,-5.06e-4 1.561633,-0.02225 1.6026,-0.04829 z m 8.376709,-0.05408 c 0.03683,-0.096 -0.193562,-3.232712 -0.283869,-3.864676 l -0.04035,-0.282359 -1.297908,-0.0168 c -0.713849,-0.0092 -1.319731,0.005 -1.346404,0.03169 -0.02667,0.02667 -0.11982,0.952291 -0.206997,2.056932 -0.119212,1.51058 -0.141002,2.02952 -0.08791,2.093491 0.0564,0.06795 0.387533,0.08505 1.647191,0.08505 1.413701,0 1.580697,-0.01068 1.61625,-0.103325 z m 8.256977,-0.05179 c 0.0094,-0.06825 -0.341237,-1.017605 -0.779052,-2.109669 l -0.796026,-1.985569 -1.295194,-0.0168 c -0.712359,-0.0092 -1.320292,0.0083 -1.350965,0.03897 -0.0709,0.0709 0.92078,4.111071 1.025637,4.178509 0.0419,0.02694 0.774227,0.04217 1.627401,0.03383 1.498387,-0.01465 1.551806,-0.01939 1.568199,-0.139259 z M 20.021512,24.001125 c 0.440537,-1.100733 0.784947,-2.043103 0.765356,-2.094156 -0.02988,-0.07786 -0.224397,-0.09282 -1.206883,-0.09282 -1.03817,0 -1.181987,0.01234 -1.265638,0.108586 -0.07372,0.08482 -1.81031,3.188574 -2.15319,3.848324 -0.04027,0.07749 -0.05602,0.168722 -0.03501,0.202735 0.02417,0.03912 0.599658,0.05575 1.566302,0.04525 l 1.52808,-0.01659 z m 7.48079,1.892744 c 0.02782,-0.07678 0.11339,-1.002001 0.19016,-2.056039 0.115918,-1.591543 0.125492,-1.925359 0.05647,-1.969107 -0.04571,-0.02897 -0.603231,-0.05311 -1.238932,-0.05363 -0.880423,-7.32e-4 -1.171959,0.01849 -1.223546,0.08065 -0.07492,0.09028 -0.940258,3.766556 -0.940258,3.994579 v 0.143154 h 1.552764 1.552762 z m 8.322973,-8.85e-4 c 0,-0.222212 -0.869134,-3.911536 -0.942232,-3.999614 -0.09331,-0.112432 -2.427227,-0.113972 -2.517865,-0.0017 -0.04249,0.05266 -0.01469,0.705249 0.08659,2.032106 0.08205,1.075 0.161768,1.989448 0.177147,2.032107 0.02137,0.0593 0.401081,0.07756 1.612161,0.07756 l 1.584198,2e-6 z m 8.285588,0.07516 c 0.03923,-0.06346 -1.999133,-3.827813 -2.190542,-4.045403 -0.08463,-0.09621 -0.229051,-0.108587 -1.266785,-0.108587 -1.017795,0 -1.176268,0.01304 -1.209466,0.09956 -0.03205,0.0835 0.933594,2.61934 1.444745,3.79402 l 0.141751,0.325757 h 1.519954 c 0.997513,0 1.533838,-0.02246 1.560343,-0.06535 z m -2.703355,-5.080668 c 0.08786,-0.16418 0.08786,-4.932003 0,-5.096182 -0.06315,-0.117989 -0.256569,-0.120019 -11.435642,-0.120019 -8.761699,0 -11.388499,0.01708 -11.445869,0.07446 -0.106994,0.106994 -0.106994,5.080307 0,5.187302 0.05737,0.05737 2.68417,0.07446 11.445869,0.07446 11.179073,0 11.372495,-0.002 11.435642,-0.120019 z"
     id="path819"
     inkscape:connector-curvature="0" />
  <style
     id="style2-1"
     type="text/css">
	.st0{opacity:0.5;fill:#E3E3E3;enable-background:new    ;}
	.st1{fill:none;stroke:#B9B8B9;stroke-linecap:round;stroke-linejoin:round;}
	.st2{opacity:0.2;fill:#FFFFFF;enable-background:new    ;}
	.st3{opacity:0.1;fill:#FFFFFF;enable-background:new    ;}
	.st4{opacity:0.3;fill:#010101;enable-background:new    ;}
	.st5{fill:#333333;}
	.st6{opacity:0.1;fill:#010101;enable-background:new    ;}
	.st7{fill:#B8B6B7;}
	.st8{opacity:0.2;fill:#010101;enable-background:new    ;}
	.st9{opacity:0.4;}
	.st10{fill:#FFFFFF;}
	.st11{opacity:5.000000e-02;fill:#FFFFFF;enable-background:new    ;}
	.st12{fill:#F9CFBA;}
	.st13{fill:#E3E3E3;}
	.st14{fill:#B9B8B9;}
	.st15{fill:#0C5AA6;}
	.st16{fill:#FBD1BF;}
	.st17{fill:#E73728;}
	.st18{fill:#3A1312;}
	.st19{opacity:0.3;fill:#3A1312;enable-background:new    ;}
	.st20{fill:#FBD1BC;}
	.st21{fill:#868686;}
	.st22{fill:#878888;}
	.st23{fill:none;stroke:#E3E3E3;stroke-linecap:round;stroke-linejoin:round;}
	.st24{opacity:0.1;fill:none;stroke:#010101;stroke-linecap:round;stroke-linejoin:round;enable-background:new    ;}
</style>
</svg>
