<?xml version="1.0" encoding="UTF-8" standalone="no"?>
<svg
   xmlns:dc="http://purl.org/dc/elements/1.1/"
   xmlns:cc="http://creativecommons.org/ns#"
   xmlns:rdf="http://www.w3.org/1999/02/22-rdf-syntax-ns#"
   xmlns:svg="http://www.w3.org/2000/svg"
   xmlns="http://www.w3.org/2000/svg"
   xmlns:sodipodi="http://sodipodi.sourceforge.net/DTD/sodipodi-0.dtd"
   xmlns:inkscape="http://www.inkscape.org/namespaces/inkscape"
   version="1.1"
   id="svg3699"
   viewBox="0 0 60.242817 60.242823"
   height="17.001863mm"
   width="17.001862mm"
   sodipodi:docname="icon-map-me.svg"
   inkscape:version="0.92.4 (5da689c313, 2019-01-14)">
  <sodipodi:namedview
     pagecolor="#ffffff"
     bordercolor="#666666"
     borderopacity="1"
     objecttolerance="10"
     gridtolerance="10"
     guidetolerance="10"
     inkscape:pageopacity="0"
     inkscape:pageshadow="2"
     inkscape:window-width="1920"
     inkscape:window-height="1016"
     id="namedview6"
     showgrid="false"
     inkscape:zoom="7.3452733"
     inkscape:cx="58.973883"
     inkscape:cy="22.602882"
     inkscape:window-x="0"
     inkscape:window-y="27"
     inkscape:window-maximized="1"
     inkscape:current-layer="svg3699"
     inkscape:snap-global="false" />
  <defs
     id="defs3701" />
  <metadata
     id="metadata3704">
    <rdf:RDF>
      <cc:Work
         rdf:about="">
        <dc:format>image/svg+xml</dc:format>
        <dc:type
           rdf:resource="http://purl.org/dc/dcmitype/StillImage" />
        <dc:title />
      </cc:Work>
    </rdf:RDF>
  </metadata>
  <style
     id="style2"
     type="text/css">
	.st0{opacity:0.5;fill:#E3E3E3;enable-background:new    ;}
	.st1{fill:none;stroke:#B9B8B9;stroke-linecap:round;stroke-linejoin:round;}
	.st2{opacity:0.2;fill:#FFFFFF;enable-background:new    ;}
	.st3{opacity:0.1;fill:#FFFFFF;enable-background:new    ;}
	.st4{opacity:0.3;fill:#010101;enable-background:new    ;}
	.st5{fill:#333333;}
	.st6{opacity:0.1;fill:#010101;enable-background:new    ;}
	.st7{fill:#B8B6B7;}
	.st8{opacity:0.2;fill:#010101;enable-background:new    ;}
	.st9{opacity:0.4;}
	.st10{fill:#FFFFFF;}
	.st11{opacity:5.000000e-02;fill:#FFFFFF;enable-background:new    ;}
	.st12{fill:#F9CFBA;}
	.st13{fill:#E3E3E3;}
	.st14{fill:#B9B8B9;}
	.st15{fill:#0C5AA6;}
	.st16{fill:#FBD1BF;}
	.st17{fill:#E73728;}
	.st18{fill:#3A1312;}
	.st19{opacity:0.3;fill:#3A1312;enable-background:new    ;}
	.st20{fill:#FBD1BC;}
	.st21{fill:#868686;}
	.st22{fill:#878888;}
	.st23{fill:none;stroke:#E3E3E3;stroke-linecap:round;stroke-linejoin:round;}
	.st24{opacity:0.1;fill:none;stroke:#010101;stroke-linecap:round;stroke-linejoin:round;enable-background:new    ;}
</style>
  <style
     id="style2-1"
     type="text/css">
	.st0{opacity:0.5;fill:#E3E3E3;enable-background:new    ;}
	.st1{fill:none;stroke:#B9B8B9;stroke-linecap:round;stroke-linejoin:round;}
	.st2{opacity:0.2;fill:#FFFFFF;enable-background:new    ;}
	.st3{opacity:0.1;fill:#FFFFFF;enable-background:new    ;}
	.st4{opacity:0.3;fill:#010101;enable-background:new    ;}
	.st5{fill:#333333;}
	.st6{opacity:0.1;fill:#010101;enable-background:new    ;}
	.st7{fill:#B8B6B7;}
	.st8{opacity:0.2;fill:#010101;enable-background:new    ;}
	.st9{opacity:0.4;}
	.st10{fill:#FFFFFF;}
	.st11{opacity:5.000000e-02;fill:#FFFFFF;enable-background:new    ;}
	.st12{fill:#F9CFBA;}
	.st13{fill:#E3E3E3;}
	.st14{fill:#B9B8B9;}
	.st15{fill:#0C5AA6;}
	.st16{fill:#FBD1BF;}
	.st17{fill:#E73728;}
	.st18{fill:#3A1312;}
	.st19{opacity:0.3;fill:#3A1312;enable-background:new    ;}
	.st20{fill:#FBD1BC;}
	.st21{fill:#868686;}
	.st22{fill:#878888;}
	.st23{fill:none;stroke:#E3E3E3;stroke-linecap:round;stroke-linejoin:round;}
	.st24{opacity:0.1;fill:none;stroke:#010101;stroke-linecap:round;stroke-linejoin:round;enable-background:new    ;}
</style>
  <style
     type="text/css"
     id="style2-3">
	.st0{opacity:0.5;fill:#E3E3E3;enable-background:new    ;}
	.st1{fill:none;stroke:#B9B8B9;stroke-linecap:round;stroke-linejoin:round;}
	.st2{opacity:0.2;fill:#FFFFFF;enable-background:new    ;}
	.st3{opacity:0.1;fill:#FFFFFF;enable-background:new    ;}
	.st4{opacity:0.3;fill:#010101;enable-background:new    ;}
	.st5{fill:#333333;}
	.st6{opacity:0.1;fill:#010101;enable-background:new    ;}
	.st7{fill:#B8B6B7;}
	.st8{opacity:0.2;fill:#010101;enable-background:new    ;}
	.st9{opacity:0.4;}
	.st10{fill:#FFFFFF;}
	.st11{opacity:5.000000e-02;fill:#FFFFFF;enable-background:new    ;}
	.st12{fill:#F9CFBA;}
	.st13{fill:#E3E3E3;}
	.st14{fill:#B9B8B9;}
	.st15{fill:#0C5AA6;}
	.st16{fill:#FBD1BF;}
	.st17{fill:#E73728;}
	.st18{fill:#3A1312;}
	.st19{opacity:0.3;fill:#3A1312;enable-background:new    ;}
	.st20{fill:#FBD1BC;}
	.st21{fill:#868686;}
	.st22{fill:#878888;}
	.st23{fill:none;stroke:#E3E3E3;stroke-linecap:round;stroke-linejoin:round;}
	.st24{opacity:0.1;fill:none;stroke:#010101;stroke-linecap:round;stroke-linejoin:round;enable-background:new    ;}
</style>
  <g
     id="g86"
     transform="matrix(0.53992662,0,0,0.53992662,13.802275,13.802375)"
     style="fill:#333333;fill-opacity:1">
    <g
       id="g26"
       style="fill:#333333;fill-opacity:1">
	<g
   id="g24"
   style="fill:#333333;fill-opacity:1">
		<g
   id="g22"
   style="fill:#333333;fill-opacity:1">
			<path
   id="path16"
   d="m 22.506,23.467 c 0.016,0.064 0.009,0.068 -0.008,0.041 -0.019,0.079 -0.035,0.163 -0.05,0.264 0.027,-0.175 0.056,-0.244 0.081,-0.26 -0.006,-0.015 -0.013,-0.039 -0.02,-0.055 -0.001,0.003 -0.003,0.007 -0.003,0.01 z"
   style="fill:#333333;fill-opacity:1"
   inkscape:connector-curvature="0" />

			<path
   id="path18"
   d="M 50.031,25.398 C 45.79,19.087 39.99,14.794 33.018,12.174 c -3.389,-0.881 -7.825,1.329 -7.917,1.437 -0.227,0.076 -0.455,0.174 -0.686,0.316 -0.72,0.446 -1.173,1.003 -1.44,1.609 -1.076,0.637 -2.197,1.192 -3.397,1.582 -1.291,0.419 -2.589,0.47 -3.284,0.062 0.041,0.023 -0.155,-0.132 -0.276,-0.486 -0.221,-0.651 -0.16,-1.235 -0.11,-1.949 0.149,-2.176 1.365,-4.385 2.393,-6.244 1.856,-3.357 -3.279,-6.355 -5.134,-3 -2.507,4.537 -5.383,11.617 -0.962,15.974 3.415,3.363 8.506,1.978 12.572,-0.159 0.199,0.313 0.413,0.619 0.659,0.909 0.27,0.316 0.518,0.643 0.77,0.968 1.339,2.29 1.389,8.149 1.389,8.149 0,0 -4.666,15.936 -4.28,24.537 0.235,5.25 8.412,5.273 8.174,0 -0.295,-6.594 0.544,-12.914 2.685,-19.059 0.386,0.174 0.785,0.311 1.195,0.408 0.373,6.896 1.438,13.709 3.449,20.354 1.52,5.033 9.41,2.888 7.881,-2.172 C 44.406,47.813 43.428,40.141 43.378,32.222 43.376,31.618 43,29.855 42.916,29.472 c -0.422,-1.92 -1.018,-3.753 -1.762,-5.514 1.377,1.313 2.634,2.784 3.742,4.437 2.13,3.168 7.282,0.194 5.135,-2.997 z"
   style="fill:#333333;fill-opacity:1"
   inkscape:connector-curvature="0" />

			<circle
   id="circle20"
   r="6.0910001"
   cy="6.0910001"
   cx="24.799999"
   style="fill:#333333;fill-opacity:1" />

		</g>

	</g>

</g>
    <g
       id="g28"
       style="fill:#333333;fill-opacity:1">
</g>
    <g
       id="g30"
       style="fill:#333333;fill-opacity:1">
</g>
    <g
       id="g32"
       style="fill:#333333;fill-opacity:1">
</g>
    <g
       id="g34"
       style="fill:#333333;fill-opacity:1">
</g>
    <g
       id="g36"
       style="fill:#333333;fill-opacity:1">
</g>
    <g
       id="g38"
       style="fill:#333333;fill-opacity:1">
</g>
    <g
       id="g40"
       style="fill:#333333;fill-opacity:1">
</g>
    <g
       id="g42"
       style="fill:#333333;fill-opacity:1">
</g>
    <g
       id="g44"
       style="fill:#333333;fill-opacity:1">
</g>
    <g
       id="g46"
       style="fill:#333333;fill-opacity:1">
</g>
    <g
       id="g48"
       style="fill:#333333;fill-opacity:1">
</g>
    <g
       id="g50"
       style="fill:#333333;fill-opacity:1">
</g>
    <g
       id="g52"
       style="fill:#333333;fill-opacity:1">
</g>
    <g
       id="g54"
       style="fill:#333333;fill-opacity:1">
</g>
    <g
       id="g56"
       style="fill:#333333;fill-opacity:1">
</g>
  </g>
</svg>
